<svg xmlns="http://www.w3.org/2000/svg">
    <symbol id="icon-close" viewBox="0 0 20 20">
        <g id="Menu">
            <g id="Group 64">
                <path id="Rectangle Copy 45" fill-rule="evenodd" clip-rule="evenodd" d="M1.16156 1.06066C1.74735 0.474873 2.6971 0.474874 3.28288 1.06066L18.9393 16.7171C19.5251 17.3029 19.5251 18.2527 18.9393 18.8384L18.8384 18.9393C18.2526 19.5251 17.3029 19.5251 16.7171 18.9393L1.06066 3.28288C0.474872 2.69709 0.474874 1.74735 1.06066 1.16156L1.16156 1.06066Z" fill="black"/>
                <path id="Rectangle Copy 47" fill-rule="evenodd" clip-rule="evenodd" d="M18.8384 1.06066C18.2526 0.474873 17.3029 0.474874 16.7171 1.06066L1.06066 16.7171C0.474872 17.3029 0.474874 18.2527 1.06066 18.8384L1.16156 18.9393C1.74735 19.5251 2.6971 19.5251 3.28288 18.9393L18.9393 3.28288C19.5251 2.69709 19.5251 1.74735 18.9393 1.16156L18.8384 1.06066Z" fill="black"/>
            </g>
        </g>
    </symbol>
    <symbol id="icon-delete" viewBox="0 0 10 10">
        <rect x="2.17188" y="0.757355" width="10" height="2" rx="1" transform="rotate(45 2.17188 0.757355)" fill="#A9A9A9"/>
        <rect width="10" height="2" rx="1" transform="matrix(-0.707107 0.707107 0.707107 0.707107 7.8291 0.757355)" fill="#A9A9A9"/>
    </symbol>
    <symbol id="icon-addpizza" width="12" height="12" viewBox="0 0 12 12" fill="none">
        <rect x="5" width="2" height="12" fill="white"/>
        <rect y="5" width="12" height="2" fill="white"/>
    </symbol>
    <symbol id="icon-deletepizza" width="12" height="2" viewBox="0 0 12 2" fill="none">
        <rect width="12" height="2" fill="white"/>
    </symbol>
</svg>